Topic: Adding Elements And Intermediate Array Techniques


__________________________________________


output.push [1,2,3]; 



var output = [];
var count = 1; 

function fizzBuzz() {

    if (count % 3 === 0) {
        output.push("ADIB");
    } else {
        output.push(count);
    }

count++;

    console.log(output);
}
